index
…
gapminder <- read_csv("https://raw.githubusercontent.com/OHI-Science/data-science-training/master/data/gapminder.csv")

## Parsed with column specification:
## cols(
##   country = col_character(),
##   year = col_integer(),
##   pop = col_double(),
##   continent = col_character(),
##   lifeExp = col_double(),
##   gdpPercap = col_double()
## )

gapminder

## # A tibble: 1,704 x 6
##        country  year      pop continent lifeExp gdpPercap
##          <chr> <int>    <dbl>     <chr>   <dbl>     <dbl>
##  1 Afghanistan  1952  8425333      Asia  28.801  779.4453
##  2 Afghanistan  1957  9240934      Asia  30.332  820.8530
##  3 Afghanistan  1962 10267083      Asia  31.997  853.1007
##  4 Afghanistan  1967 11537966      Asia  34.020  836.1971
##  5 Afghanistan  1972 13079460      Asia  36.088  739.9811
##  6 Afghanistan  1977 14880372      Asia  38.438  786.1134
##  7 Afghanistan  1982 12881816      Asia  39.854  978.0114
##  8 Afghanistan  1987 13867957      Asia  40.822  852.3959
##  9 Afghanistan  1992 16317921      Asia  41.674  649.3414
## 10 Afghanistan  1997 22227415      Asia  41.763  635.3414
## # ... with 1,694 more rows
…
## # A tibble: 1 x 6
##   country  year       pop continent lifeExp gdpPercap
##     <chr> <int>     <dbl>     <chr>   <dbl>     <dbl>
## 1  Mexico  2002 102479927  Americas  74.902  10742.44

Selecting

Cmd-I to re-indent the entire code

gapminder %>% select(year,lifeExp)

## # A tibble: 1,704 x 2
##     year lifeExp
##    <int>   <dbl>
##  1  1952  28.801
##  2  1957  30.332
##  3  1962  31.997
##  4  1967  34.020
##  5  1972  36.088
##  6  1977  38.438
##  7  1982  39.854
##  8  1987  40.822
##  9  1992  41.674
## 10  1997  41.763
## # ... with 1,694 more rows
…
exercise 6.10.1

#NOT RIGHT WAY
#gapminder %>% 
#  filter(country == c("Egypt","Vietnam"))

## `%in%` operator lets you filter multiple things within a `c()`
gapminder %>% 
  filter(country %in% c("Egypt","Vietnam")) %>% 
  mutate(max_gdpPercap = max(gdpPercap))

## # A tibble: 24 x 7
##    country  year      pop continent lifeExp gdpPercap max_gdpPercap
##      <chr> <int>    <dbl>     <chr>   <dbl>     <dbl>         <dbl>
##  1   Egypt  1952 22223309    Africa  41.893  1418.822      5581.181
##  2   Egypt  1957 25009741    Africa  44.444  1458.915      5581.181
##  3   Egypt  1962 28173309    Africa  46.992  1693.336      5581.181
##  4   Egypt  1967 31681188    Africa  49.293  1814.881      5581.181
##  5   Egypt  1972 34807417    Africa  51.137  2024.008      5581.181
##  6   Egypt  1977 38783863    Africa  53.319  2785.494      5581.181
##  7   Egypt  1982 45681811    Africa  56.006  3503.730      5581.181
##  8   Egypt  1987 52799062    Africa  59.797  3885.461      5581.181
##  9   Egypt  1992 59402198    Africa  63.674  3794.755      5581.181
## 10   Egypt  1997 66134291    Africa  67.217  4173.182      5581.181
## # ... with 14 more rows
…
